Opinion towards Liberal and gender - A Hugo website
…
We can see that how interesting in election, opinion towards Liberal, Conservative and NDP are represented by the number, higher number means more positive, lower number means more negative. And negative number means that the respondents don’t know the answer or chose not to answer which should be treated like missing values. Thus we need to replace that negative values with NA.

selected_data[selected_data==-9] <- NA
selected_data[selected_data==-8] <- NA
selected_data[selected_data==-6] <- NA
selected_data

## # A tibble: 4,021 x 9
##       id year_of_born  gender how_interesting… opinion_towards… `opinion toward…
##    <dbl>    <dbl+lbl> <dbl+l>        <dbl+lbl>        <dbl+lbl>        <dbl+lbl>
##  1    18         1963 1 [(1)…  8 [(8)]                       60               40
##  2    32         1973 1 [(1)… 10 [(10) Great …               70               55
##  3    39         1994 1 [(1)… 10 [(10) Great …               70               60
##  4    59         2000 1 [(1)…  6 [(6)]                       75               40
##  5    61         1984 1 [(1)… 10 [(10) Great …               10               10
##  6    69         1939 1 [(1)… 10 [(10) Great …                0               30
##  7   157         1999 1 [(1)…  6 [(6)]                       50               20
##  8   158         1995 1 [(1)…  8 [(8)]                       65               25
##  9   165         1963 1 [(1)…  7 [(7)]                       50               80
## 10   167         1970 1 [(1)…  7 [(7)]                       70               10
## # … with 4,011 more rows, and 3 more variables: `opinion towards
## #   NDP` <dbl+lbl>, education <dbl+lbl>, household_income <dbl+lbl>
…
